<?xml version="1.0" encoding="UTF-8"?>
<svg width="32px" height="28px" viewBox="0 0 32 28" version="1.1" xmlns="http://www.w3.org/2000/svg" xmlns:xlink="http://www.w3.org/1999/xlink">
    <title>Group</title>
    <g id="Page-1" stroke="none" stroke-width="1" fill="none" fill-rule="evenodd" opacity="0.567452567">
        <g id="7.home_screen" transform="translate(-172.000000, -708.000000)" fill="#FFFFFF" fill-rule="nonzero">
            <g id="Group" transform="translate(172.000000, 708.000000)">
                <path d="M16.7454545,22.0090909 C16.8818182,22.7909091 17,23.6181818 17.1636364,24.4272727 C17.2272727,24.7636364 17.2,25.0090909 16.9363636,25.2363636 C16.6545455,25.4818182 16.4,25.7727273 16.1272727,26.0272727 C15.3636364,26.7454545 14.4545455,26.7454545 13.7,26 C10.7272727,23.0545455 7.75454545,20.1 4.79090909,17.1454545 C3.85454545,16.2090909 2.88181818,15.2909091 2.00909091,14.2818182 C-0.354545455,11.5636364 -0.545454545,7.15454545 1.38181818,4.10909091 C4.09090909,-0.181818182 10.0909091,-1.07272727 14.0727273,1.58181818 C15.1090909,2.27272727 15.5727273,2.26363636 16.6363636,1.56363636 C19.7818182,-0.518181818 23.6363636,-0.390909091 26.4818182,1.88181818 C29.8636364,4.58181818 30.8181818,9.44545455 28.7,13.0818182 C28.5181818,13.3909091 28.3545455,13.4909091 27.9818182,13.4 C23.1363636,12.2090909 18.5181818,14.8727273 17.1272727,19.6727273 C16.9272727,20.4181818 16.8818182,21.2 16.7454545,22.0090909 Z" id="Path"></path>
                <path d="M22.1909091,23.3545455 C21.7818182,23.3545455 21.3727273,23.3636364 20.9636364,23.3545455 C20.0818182,23.3181818 19.5090909,22.7272727 19.499895,21.8363636 C19.4909091,21.0363636 20.0727273,20.4181818 20.9181818,20.3727273 C21.5363636,20.3454545 22.1545455,20.3636364 22.7818182,20.3636364 C24.3363636,20.3636364 24.0090909,20.4272727 24.0454545,19.1545455 C24.0636364,18.5636364 24.0363636,17.9727273 24.0454545,17.3818182 C24.0636364,16.4363636 24.7181818,15.7454545 25.5727273,15.7544568 C26.4272727,15.7636364 27.0909091,16.4909091 27.0909091,17.4090909 C27.0909091,18.1909091 27.1181818,18.9818182 27.0909091,19.7636364 C27.0727273,20.2181818 27.2636364,20.3454545 27.6727273,20.3454545 C28.5,20.3363636 29.3363636,20.3272727 30.1636364,20.3545455 C31,20.3727273 31.6272727,21.0181818 31.6454545,21.8272727 C31.6636364,22.6818182 31.0454545,23.3363636 30.1909091,23.3545455 C29.3636364,23.3727273 28.5272727,23.3727273 27.7,23.3545455 C27.2636364,23.3454545 27.0727273,23.4909091 27.0818182,23.9545455 C27.1090909,24.7818182 27.1090909,25.6181818 27.0909091,26.4454545 C27.0727273,27.0727273 26.7818182,27.5545455 26.2,27.8090909 C25.6272727,28.0636364 25.0727273,27.9454545 24.5818182,27.5636364 C24.1909091,27.2545455 24.0727273,26.8181818 24.0545455,26.3545455 C24.0363636,25.6 24.0454545,24.8454545 24.0454545,24.0909091 C24.0454545,23.3818182 24.0181818,23.3454545 23.3090909,23.3545455 C22.9454545,23.3636364 22.5636364,23.3636364 22.1909091,23.3545455 C22.1909091,23.3636364 22.1909091,23.3545455 22.1909091,23.3545455 Z" id="Path"></path>
            </g>
        </g>
    </g>
</svg>