<?xml version="1.0" encoding="UTF-8"?>
<svg width="18px" height="18px" viewBox="0 0 18 18" version="1.1" xmlns="http://www.w3.org/2000/svg" xmlns:xlink="http://www.w3.org/1999/xlink">
    <!-- Generator: Sketch 62 (91390) - https://sketch.com -->
    <title>edit copy 2</title>
    <desc>Created with Sketch.</desc>
    <g id="Page-1" stroke="none" stroke-width="1" fill="none" fill-rule="evenodd" stroke-linecap="round">
        <g id="1.Sign_in-Copy" transform="translate(-267.000000, -328.000000)" stroke="#0D2E27">
            <g id="edit-copy-2" transform="translate(269.000000, 329.000000)">
                <path d="M15.1089832,4.17681854 L4.77461307,14.5067362 L-0.644602778,15.6465128 L0.475065444,10.2435855 L6.74274213,3.97321187 L10.8252485,-0.111039171 C11.0874844,-0.37034639 11.4296378,-0.5 11.7717911,-0.5 C12.1139444,-0.5 12.4560978,-0.37034639 12.7203246,-0.109059429 L15.1110392,2.28166631 C15.3703464,2.54390221 15.5,2.88605555 15.5,3.22820889 C15.5,3.57036223 15.3703464,3.91251558 15.1089832,4.17681854 Z" id="Path"></path>
                <path d="M1,10 C2.82121653,10.7347961 4.26520386,12.1787835 5,14" id="Path" stroke-linejoin="round"></path>
                <line x1="10" y1="1" x2="14" y2="5" id="Path" stroke-linejoin="round"></line>
                <line x1="8" y1="3" x2="12" y2="7" id="Path" stroke-linejoin="round"></line>
                <line x1="10" y1="5" x2="5" y2="10" id="Path" stroke-linejoin="round"></line>
            </g>
        </g>
    </g>
</svg>