<svg xmlns="http://www.w3.org/2000/svg" xmlns:xlink="http://www.w3.org/1999/xlink" height="126" width="126">
  <g opacity="1">
    <g opacity="1">
      <path fill="rgb(255,255,255)" fill-opacity="1" opacity="1" fill-rule="evenodd" d="M115.88951070439921 82.7045625C108.17531204345822 82.7045625 100.60089426850452 81.498046875 93.42317858547244 79.12603125C89.90601586975035 77.92640625 85.58232400436457 79.0269375 83.43573584443791 81.231609375L69.26831961375102 91.926515625C52.83815927562689 83.1560625 42.71749813151529 73.03865624999999 34.06683315928865 56.73182812499999L44.447040502498695 42.933515625000005C47.14389285444569 40.240265625 48.11120283540929 36.30604687499999 46.95226835346783 32.61464062499999C44.57008705706495 25.399171875 43.35996520842393 17.82834375 43.35996520842393 10.110843749999997C43.36029333256944 4.535671875 38.8246332691842 0 33.249804036968655 0L10.110489295600793 0C4.535660063385253 0 0 4.535671875 0 10.110515625C0 74.01285937499999 51.987333366319355 126 115.88951070439921 126C121.46433993661475 126 126 121.46432812500001 126 115.889484375L126 92.81475C125.99967187585449 87.240234375 121.46401181246925 82.7045625 115.88951070439921 82.7045625Z"/>
    </g>
  </g>
</svg>