<?xml version="1.0" encoding="UTF-8"?>
<svg width="27px" height="28px" viewBox="0 0 27 28" version="1.1" xmlns="http://www.w3.org/2000/svg" xmlns:xlink="http://www.w3.org/1999/xlink">
    <!-- Generator: Sketch 62 (91390) - https://sketch.com -->
    <title>Group 6 Copy 3</title>
    <desc>Created with Sketch.</desc>
    <defs>
        <linearGradient x1="50%" y1="0%" x2="50%" y2="100%" id="linearGradient-1">
            <stop stop-color="#FF325C" offset="0%"></stop>
            <stop stop-color="#FF6F3B" offset="100%"></stop>
        </linearGradient>
    </defs>
    <g id="Page-1" stroke="none" stroke-width="1" fill="none" fill-rule="evenodd" stroke-linejoin="round">
        <g id="1.Sign_in-Copy" transform="translate(-267.000000, -735.000000)">
            <g id="Group-6-Copy-3" transform="translate(268.000000, 737.000000)">
                <circle id="Oval" stroke="#FFFFFF" stroke-width="2.5" cx="13" cy="6" r="6"></circle>
                <path d="M1,24.5 L1,20 C1,17.790861 2.790861,16 5,16 L20,16 C22.209139,16 24,17.790861 24,20 L24,24.5" id="Path" stroke="#FFFFFF" stroke-width="2.5" stroke-linecap="round"></path>
                <path d="" id="Path-3" stroke="#979797"></path>
            </g>
        </g>
    </g>
</svg>